[
  {
    "id": 1,
    "ptnp": "Politeknik Pariwisata Bandung",
    "location": "Bandung, west java",
    "type": "tourism destination management"
  },
  {
    "id": 2,
    "ptnp": "Politeknik Pariwisata Bali",
    "location": "Bali",
    "type": "cultural tourism"
  },
  {
    "id": 3,
    "ptnp": "Politeknik Pariwisata Medan",
    "location": "Medan, South Sumatera",
    "type": "sport tourism"
  }
]
